^C:\USERS\DIYER\CARND-PATH-PLANNING-PROJECT\PATH_PLANNER\X64\DEBUG\COST.OBJ|C:\USERS\DIYER\CARND-PATH-PLANNING-PROJECT\PATH_PLANNER\X64\DEBUG\MAIN.OBJ|C:\USERS\DIYER\CARND-PATH-PLANNING-PROJECT\PATH_PLANNER\X64\DEBUG\MAP_UTILITIES.OBJ|C:\USERS\DIYER\CARND-PATH-PLANNING-PROJECT\PATH_PLANNER\X64\DEBUG\VEHICLE.OBJ
C:\USERS\DIYER\CARND-PATH-PLANNING-PROJECT\X64\DEBUG\PATH_PLANNER.EXE
C:\USERS\DIYER\CARND-PATH-PLANNING-PROJECT\X64\DEBUG\PATH_PLANNER.ILK
C:\USERS\DIYER\CARND-PATH-PLANNING-PROJECT\X64\DEBUG\PATH_PLANNER.PDB
